\relax 
\providecommand\hyper@newdestlabel[2]{}
\providecommand\HyperFirstAtBeginDocument{\AtBeginDocument}
\HyperFirstAtBeginDocument{\ifx\hyper@anchor\@undefined
\global\let\oldcontentsline\contentsline
\gdef\contentsline#1#2#3#4{\oldcontentsline{#1}{#2}{#3}}
\global\let\oldnewlabel\newlabel
\gdef\newlabel#1#2{\newlabelxx{#1}#2}
\gdef\newlabelxx#1#2#3#4#5#6{\oldnewlabel{#1}{{#2}{#3}}}
\AtEndDocument{\ifx\hyper@anchor\@undefined
\let\contentsline\oldcontentsline
\let\newlabel\oldnewlabel
\fi}
\fi}
\global\let\hyper@last\relax 
\gdef\HyperFirstAtBeginDocument#1{#1}
\providecommand\HyField@AuxAddToFields[1]{}
\providecommand\HyField@AuxAddToCoFields[2]{}
\@writefile{toc}{\contentsline {section}{\numberline {1}Introduccion}{1}{section.1}}
\@writefile{toc}{\contentsline {subsection}{\numberline {1.1}Aplicaciones}{1}{subsection.1.1}}
\@writefile{toc}{\contentsline {subsection}{\numberline {1.2}Videos}{1}{subsection.1.2}}
\@writefile{toc}{\contentsline {section}{\numberline {2}Caso de estudio}{1}{section.2}}
\@writefile{toc}{\contentsline {subsection}{\numberline {2.1}Dataset}{1}{subsection.2.1}}
\@writefile{toc}{\contentsline {subsection}{\numberline {2.2}Graficos}{1}{subsection.2.2}}
\@writefile{toc}{\contentsline {section}{\numberline {3}Experimento}{2}{section.3}}
\@writefile{toc}{\contentsline {subsection}{\numberline {3.1}Pruebas}{3}{subsection.3.1}}
\@writefile{toc}{\contentsline {subsection}{\numberline {3.2}Graficacion con gnuplot}{6}{subsection.3.2}}
\@writefile{toc}{\contentsline {subsection}{\numberline {3.3}Validacion}{7}{subsection.3.3}}
\@writefile{toc}{\contentsline {section}{\numberline {4}Repositorio}{7}{section.4}}
\@writefile{toc}{\contentsline {section}{\numberline {5}Conclusiones}{7}{section.5}}
