\contentsline {section}{\numberline {1}Introduccion}{1}{section.1}
\contentsline {subsection}{\numberline {1.1}Aplicaciones}{1}{subsection.1.1}
\contentsline {subsection}{\numberline {1.2}Videos}{1}{subsection.1.2}
\contentsline {section}{\numberline {2}Caso de estudio}{1}{section.2}
\contentsline {subsection}{\numberline {2.1}Dataset}{1}{subsection.2.1}
\contentsline {subsection}{\numberline {2.2}Graficos}{1}{subsection.2.2}
\contentsline {section}{\numberline {3}Experimento}{2}{section.3}
\contentsline {subsection}{\numberline {3.1}Pruebas}{3}{subsection.3.1}
\contentsline {subsection}{\numberline {3.2}Graficacion con gnuplot}{6}{subsection.3.2}
\contentsline {subsection}{\numberline {3.3}Validacion}{7}{subsection.3.3}
\contentsline {section}{\numberline {4}Repositorio}{7}{section.4}
\contentsline {section}{\numberline {5}Conclusiones}{7}{section.5}
